2018-01-24 18:50:23 - Array
(
    [user_id] => 193
)

2018-01-31 19:23:47 - Array
(
    [user_id] => 193
)

2018-02-14 18:39:01 - Array
(
    [user_id] => 193
)

2018-02-16 19:11:05 - Array
(
    [user_id] => 193
)

2018-02-17 13:49:55 - Array
(
    [user_id] => 193
)

2018-02-17 17:52:34 - Array
(
    [user_id] => 341
)

2018-02-17 18:07:18 - Array
(
    [user_id] => 391
)

2018-02-17 18:17:14 - Array
(
    [user_id] => 341
)

2018-02-17 18:19:03 - Array
(
    [user_id] => 391
)

2018-02-17 18:34:50 - Array
(
    [user_id] => 341
)

2018-02-17 18:35:35 - Array
(
    [user_id] => 341
)

2018-02-17 18:35:40 - Array
(
    [user_id] => 391
)

2018-02-17 18:38:00 - Array
(
    [user_id] => 193
)

2018-02-17 19:56:46 - Array
(
    [user_id] => 391
)

2018-02-17 19:57:33 - Array
(
    [user_id] => 193
)

2018-02-17 20:02:15 - Array
(
    [user_id] => 341
)

2018-02-17 20:03:19 - Array
(
    [user_id] => 391
)

2018-02-18 9:36:28 - Array
(
    [user_id] => 341
)

2018-02-18 10:26:51 - Array
(
    [user_id] => 193
)

2018-02-18 10:27:11 - Array
(
    [user_id] => 391
)

2018-02-18 10:44:52 - Array
(
    [user_id] => 193
)

2018-02-18 10:45:08 - Array
(
    [user_id] => 341
)

2018-02-18 10:45:48 - Array
(
    [user_id] => 391
)

2018-02-18 11:08:02 - Array
(
    [user_id] => 193
)

2018-02-18 11:08:36 - Array
(
    [user_id] => 341
)

2018-02-18 11:08:58 - Array
(
    [user_id] => 391
)

2018-02-18 11:26:39 - Array
(
    [user_id] => 341
)

2018-02-18 11:29:15 - Array
(
    [user_id] => 193
)

2018-02-24 18:07:12 - Array
(
    [user_id] => 193
)

2018-02-24 20:12:34 - Array
(
    [user_id] => 341
)

2018-02-24 20:40:57 - Array
(
    [user_id] => 391
)

2018-02-24 20:57:51 - Array
(
    [user_id] => 193
)

2018-02-24 21:11:29 - Array
(
    [user_id] => 391
)

2018-02-24 21:13:07 - Array
(
    [user_id] => 193
)

2018-03-08 12:05:55 - Array
(
    [user_id] => 193
)

2018-03-14 17:25:45 - Array
(
    [user_id] => 193
)

2018-03-16 17:10:04 - Array
(
    [user_id] => 193
)

2018-03-16 17:16:07 - Array
(
    [user_id] => 193
)

2018-03-17 13:04:32 - Array
(
    [user_id] => 193
)

2018-04-30 20:17:34 - Array
(
    [user_id] => 193
)

2018-05-07 11:48:13 - Array
(
    [user_id] => 193
)

2018-05-07 11:51:37 - Array
(
    [user_id] => 193
)

2018-05-07 11:51:56 - Array
(
    [user_id] => 391
)

2018-05-07 11:55:52 - Array
(
    [user_id] => 1
)

2018-05-07 11:56:08 - Array
(
    [user_id] => 193
)

2018-05-07 12:05:17 - Array
(
    [user_id] => 1
)

2018-05-07 12:08:06 - Array
(
    [user_id] => 341
)

2018-05-10 15:36:23 - in process
2018-05-10 15:36:25 - UPDATE `oc_attendance` SET `status` = '1', `transaction_id` = '16418' WHERE `punch_date` = '2018-05-10' AND `punch_time` = '19:04:00' AND `emp_id` = '60' 
2018-05-10 15:36:25 - UPDATE `oc_attendance` SET `status` = '1', `transaction_id` = '16419' WHERE `punch_date` = '2018-05-10' AND `punch_time` = '19:05:00' AND `emp_id` = '200' 
2018-05-10 15:36:26 - UPDATE `oc_attendance` SET `status` = '1', `transaction_id` = '16420' WHERE `punch_date` = '2018-05-10' AND `punch_time` = '19:05:00' AND `emp_id` = '251' 
2018-05-10 15:36:26 - UPDATE `oc_transaction` SET `firsthalf_status` = 'PL', `secondhalf_status` = 'PL', `leave_status` = '1', absent_status = '0', `present_status` = '0' WHERE `date` = '2018-03-28' AND `emp_id` = '341' 
2018-05-10 15:36:26 - UPDATE `oc_leave_transaction` SET `p_status` = '1' WHERE `date` = '2018-03-28' AND `emp_id` = '341' 
2018-05-10 15:36:26 - UPDATE `oc_leave_transaction_temp` SET `p_status` = '1' WHERE `date` = '2018-03-28' AND `emp_id` = '341' 
2018-05-10 15:36:26 - UPDATE `oc_transaction` SET `firsthalf_status` = 'PL', `secondhalf_status` = 'PL', `leave_status` = '1', absent_status = '0', `present_status` = '0' WHERE `date` = '2018-03-16' AND `emp_id` = '341' 
2018-05-10 15:36:26 - UPDATE `oc_leave_transaction` SET `p_status` = '1' WHERE `date` = '2018-03-16' AND `emp_id` = '341' 
2018-05-10 15:36:27 - UPDATE `oc_leave_transaction_temp` SET `p_status` = '1' WHERE `date` = '2018-03-16' AND `emp_id` = '341' 
2018-05-10 15:36:27 - stdClass Object
(
    [num_rows] => 0
    [row] => Array
        (
        )

    [rows] => Array
        (
        )

)

2018-05-16 9:03:59 - Array
(
    [user_id] => 391
)

2018-05-16 9:04:48 - Array
(
    [user_id] => 317
)

2018-05-16 9:05:42 - Array
(
    [user_id] => 391
)

2018-05-16 9:06:24 - Array
(
    [user_id] => 317
)

2018-05-22 10:01:33 - Array
(
    [user_id] => 193
)

2018-05-22 13:32:50 - Array
(
    [user_id] => 193
)

2018-05-24 20:43:03 - Array
(
    [user_id] => 193
)

