First Name,Middle Name,Last Name,Shift,Designation,Department,Unit,Gender,Martial Status,Blood Group,Reporting Head,Emp Code,Date Of Birth,Date Of Joining,Date Of Confirmation,Date Of Left,Previous Company UAN No,Gross Salary,Status,Bank Name,Account Number,IFSC Code,Aadhar Card No,Email ID,Personal Number,Emergency number,Emergency contact person,Address,Education,Year of Experience
Parth,Sarathi,Rath,,CEO & MD,executive,Mumbai,Male,Married,,,1,3/11/1963,3/10/2009,,,,,Active,,,,,,,,,,,
Kavita ,Sunil,Jadhav,,GM,Sales,Mumbai,Female,Married,O+ve,Capt Rath,5,13/02/1983,3/10/2009,3/2/2010,,,155000,Active,Kotak Mahindra,,,,kavita@econshipping.com,9892388436,7506262831,Sunil jadhav,"B502, Shree Durga CHS, 5th Floor, Sector 7, Plot No 27, Airoli, Navi Mumbai",Bcom,6
Ashwin,Pawan,Uppal,,DGM,Commercial,Mumbai,Male,Married,,,6,19/03/1988,24/3/2010,1/7/2010,,,,Active,,,,,,,,,,,
Subramanian,,Kannan,,Manager,Sales,Chennai,Male,Married,,,21,6/7/1983,7/10/2009,,,,,Active,,,,,,,,,,,
Nihar ,,Pradhan,,Sr Manager,Sales,Malaysia,Male,Married,,,47,19/02/1986,9/8/2010,,,,,Active,,,,,,,,,,,
Krishna ,,Das,,Sr Manager,Sales,Dubai,Male,,,,50,,,,,,,Active,,,,,,,,,,,
Jyotshna,,Satpathy,,Asst Manager,Sales,Malaysia,Female,married,,,55,,,,,,,Active,,,,,,,,,,,
Joseph,,Campbel,,Asst Manager,operations,Mumbai,male,,,,60,,,,,,,Active,,,,,,,,,,,
Amit ,,Ghosh,,,operations,Kolkata,Male,,,,68,,,,,,,Active,,,,,,,,,,,
Chandrakant ,,Kadu,,,operations,Mumbai,,,,,80,,,,,,,Active,,,,,,,,,,,
Gurudev ,,Singh,,,operations,Mumbai,,,,,104,,,,,,,Active,,,,,,,,,,,
Maroof,,Solkar,,,operations,Mumbai,,,,,110,,,,,,,Active,,,,,,,,,,,
Appu,Kumar,singh,,,operations,Mumbai,,,,,114,,,,,,,Active,,,,,,,,,,,
Kartar,,Chand,,,operations,Ludhiana,,,,,122,,,,,,,Active,,,,,,,,,,,
Mayur,,Patil,,,operations,Mumbai,,,,,124,,,,,,,Active,,,,,,,,,,,
Ashutosh ,,Mishra,,,operations,Mumbai,,,,,135,,,,,,,Active,,,,,,,,,,,
Bhagwat,Singh,Yadav,,,operations,Mumbai,,,,,145,,,,,,,Active,,,,,,,,,,,
Poonam ,,Khare,,,operations,Mumbai,,,,,147,,,,,,,Active,,,,,,,,,,,
Jayesh ,Nandu,Jhadav,,,operations,Mumbai,,,,,167,,,,,,,Active,,,,,,,,,,,
Hemali ,Gangadhar,Shettigar,,,operations,Mumbai,,,,,171,,,,,,,Active,,,,,,,,,,,
Anuja ,Sharad,Jathar,,,operations,Mumbai,,,,,182,,,,,,,Active,,,,,,,,,,,
Banoo ,Ganesh,Dunuka,,,operations,Mumbai,,,,,190,,,,,,,Active,,,,,,,,,,,
Rakesh ,Mohankumar,Nair,,,operations,Mumbai,,,,,193,,,,,,,Active,,,,,,,,,,,
Faisal ,,Qasmi,,,operations,Mumbai,,,,,200,,,,,,,Active,,,,,,,,,,,
Dipankar ,,Sengupta,,,operations,Mumbai,,,,,202,,,,,,,Active,,,,,,,,,,,
Ramchandran ,,Khutan,,,operations,Mumbai,,,,,204,,,,,,,Active,,,,,,,,,,,
Basil ,,Cyriac,,,operations,Mumbai,,,,,206,,,,,,,Active,,,,,,,,,,,
Supriya ,,Shashidharan,,,operations,Mumbai,,,,,214,,,,,,,Active,,,,,,,,,,,
Amit ,,Zepale,,,operations,Mumbai,,,,,215,,,,,,,Active,,,,,,,,,,,
Chittaranjan ,,Jena,,,operations,Dubai,,,,,217,,,,,,,Active,,,,,,,,,,,
Shivangi ,,Bhatnagar,,,operations,Mumbai,,,,,225,,,,,,,Active,,,,,,,,,,,
Rakhi ,Hanmanta,Kaki,,,operations,Mumbai,,,,,238,,,,,,,Active,,,,,,,,,,,
Asmita ,Ghanshyam,Kadam,,,operations,Mumbai,,,,,241,,,,,,,Active,,,,,,,,,,,
Sumita ,M,Redkar,,,operations,Mumbai,,,,,244,,,,,,,Active,,,,,,,,,,,
Manisha ,Ramawatar,Saini,,,operations,Mumbai,,,,,245,,,,,,,Active,,,,,,,,,,,
Ranjana ,Hawaldar,Prajapati,,,operations,Mumbai,,,,,247,,,,,,,Active,,,,,,,,,,,
Rajesh,Prashant,Kumtekar,,,operations,Mumbai,,,,,251,,,,,,,Active,,,,,,,,,,,
Pritam ,,Das,,,operations,Mumbai,,,,,253,,,,,,,Active,,,,,,,,,,,
Priya ,,Choudhary,,,operations,Mumbai,,,,,260,,,,,,,Active,,,,,,,,,,,
Priya ,,Talekar,,,operations,Mumbai,,,,,261,,,,,,,Active,,,,,,,,,,,
John ,Nicholas,Newton S,,,operations,Tuticorin,,,,,264,,,,,,,Active,,,,,,,,,,,
Sheji ,R,Nair,,,operations,Mumbai,,,,,270,,,,,,,Active,,,,,,,,,,,
Shahbaaz ,Badrealam,Ansari,,,operations,Mumbai,,,,,271,,,,,,,Active,,,,,,,,,,,
Dolly ,,Kori,,,operations,Mumbai,,,,,279,,,,,,,Active,,,,,,,,,,,
Seema ,,Gujjar,,,operations,Mumbai,,,,,281,,,,,,,Active,,,,,,,,,,,
Pooja ,S,Kocharekar,,,operations,Mumbai,,,,,288,,,,,,,Active,,,,,,,,,,,
Siddhesh ,,Chavan,,,operations,Mumbai,,,,,290,,,,,,,Active,,,,,,,,,,,
Deepak ,,Yadav,,,operations,Mumbai,,,,,291,,,,,,,Active,,,,,,,,,,,
Sushant ,,Kumar,,,operations,Delhi,,,,,292,,,,,,,Active,,,,,,,,,,,
Rahul,,Ravindranath,,,operations,Cochin,,,,,304,,,,,,,Active,,,,,,,,,,,
Mansur ,,Ansari,,,operations,Mumbai,,,,,306,,,,,,,Active,,,,,,,,,,,
Umesh ,Haridas,Madatholy,,,operations,Mumbai,,,,,312,,,,,,,Active,,,,,,,,,,,
Abhishek ,,Poojari,,,operations,Mumbai,,,,,314,,,,,,,Active,,,,,,,,,,,
Nadia,,Bhanja,,,operations,Mumbai,,,,,317,,,,,,,Active,,,,,,,,,,,
Shrikant ,Prakash,Satarkar,,,operations,Mumbai,,,,,323,,,,,,,Active,,,,,,,,,,,
Fiona ,,Fernando,,,operations,Mumbai,,,,,325,,,,,,,Active,,,,,,,,,,,
Raja ,,Nadar,,,operations,Mumbai,,,,,327,,,,,,,Active,,,,,,,,,,,
Bhavin ,Harshadbhai,Patel,,,operations,Mumbai,,,,,328,,,,,,,Active,,,,,,,,,,,
Krizelle ,,Rapose,,,operations,Mumbai,,,,,329,,,,,,,Active,,,,,,,,,,,
Lee,Zhi,Yang,,,operations,Singapore,,,,,330,,,,,,,Active,,,,,,,,,,,
Andrew ,,Goh,,,operations,Singapore,,,,,331,,,,,,,Active,,,,,,,,,,,
Vimalan Shawn,,Shawn,,,operations,Singapore,,,,,332,,,,,,,Active,,,,,,,,,,,
Mugelan ,,A/l Eleng Kovan,,,operations,Malaysia,,,,,336,,,,,,,Active,,,,,,,,,,,
Aaftab ,M.,Matte,,,operations,Mumbai,,,,,341,,,,,,,Active,,,,,,,,,,,
Sankesh Poojari,,Poojari,,,operations,Mumbai,,,,,342,,,,,,,Active,,,,,,,,,,,
Revathi,,Subramanian,,,operations,Mumbai,,,,,343,,,,,,,Active,,,,,,,,,,,
Kishor,,Chaudhary,,,operations,Mumbai,,,,,344,,,,,,,Active,,,,,,,,,,,
Vinod,,Singh,,,operations,Delhi,,,,,347,,,,,,,Active,,,,,,,,,,,
Stervino,,F,,,operations,Tuticorin,,,,,348,,,,,,,Active,,,,,,,,,,,
Rahul Agarwal,,Agarwal,,,operations,Gandhidham,,,,,349,,,,,,,Active,,,,,,,,,,,
Viraj ,A.,Parab,,,operations,Mumbai,,,,,355,,,,,,,Active,,,,,,,,,,,
Surya,M.S.,Senthil,,,operations,Mumbai,,,,,358,,,,,,,Active,,,,,,,,,,,
Snehal ,Ashok ,Parab,,,operations,Mumbai,,,,,363,,,,,,,Active,,,,,,,,,,,
Rajat,,Kumar,,,operations,Mumbai,,,,,368,,,,,,,Active,,,,,,,,,,,
Zaheda,,Shaikh,,,operations,Mumbai,,,,,371,,,,,,,Active,,,,,,,,,,,
Rahul,,Vijan,,,operations,Mumbai,,,,,372,,,,,,,Active,,,,,,,,,,,
Shiva ,Yelappa,Chalwadi,,,operations,Mumbai,,,,,374,,,,,,,Active,,,,,,,,,,,
Rupesh,,Jha,,,operations,Mumbai,,,,,375,,,,,,,Active,,,,,,,,,,,
Rohit,,Raut,,,operations,Mumbai,,,,,376,,,,,,,Active,,,,,,,,,,,
Ramaa,,Sabat,,Executive,trade,Mumbai,female,single,,,377,,,,,,,Active,,,,,,,,,,,
Sagar  ,Navin,Rao,,Executive,trade,Mumbai,male,single,B+ve,Ashwin Uppal,378,15/10/1994,6/6/2017,11/12/2017,,,15000,Active,Canara Bank,1.77E+12,CNRB0001765,5.66E+11,sagar@econshipping.com,9833343531,8691967779,Navin Rao,"114/3763,Himanshu CHS, Near Police
 Station,Nehru Nagar,Kurla(E),Mumbai
-400024",,
Nidhi ,Govindsingh ,Kharayat,,Executive,accounts,Mumbai,female,single,B+ve,,380,7/3/1995,14/06/2017,11/12/2017,,,15000,Active,Union Bank,6.30E+14,UBIN0562971,,nidhi@econshipping.com,9769353605,9323192283,Govind Singh,,,
Sreelakshmi ,Santoshkumar,Nair,,Executive,Quality,Mumbai,female,single,b+ve,,383,5/6/1996,15/06/2017,11/12/2017,,,15000,Active,Canara Bank,2.49E+11,CNRB0000249,3.60E+11,sreelakshmi@econshipping.com,9773550373,9821443003,Shaly,"D 101, Yog-sankul, Mahatma Phule Road, Maharashtra Nagar, Dombivli(west). Thane.",B.com,0
Vimalan,A/l,Raman,,,operations,Malaysia,,,,,384,,,,,,,Active,,,,,,,,,,,
Kirti  ,Dattaram,Bane,,Executive,accounts,Mumbai,Female,single,AB+ve,,385,17/11/1989,3/7/2017,4/1/2018,,,15000,Active,Axis Bank,9.15E+14,UTIB0000018,3.40E+11,kriti@econshipping.com,8097917636,8097952426,Ketan,,,
Karishma,Joshi,Machingal,,Executive,operations,Mumbai,Female,single,AB+ve,,387,28/08/1996,1/8/2017,,,,15000,Active,State Bank of India,67383499221,SBIN0070800,6.94E+11,karishma@econshipping.com,9930256542,9967683060,Joshi,,,
Mariammal ,,Ayyadurai,,Executive,operations,Mumbai,Female,single,O+ve,,388,12/6/1996,1/8/2017,,,,15000,Active,Indian Overseas Bank,1.41E+13,IOBA0000141,4.55E+11,mari@econshipping.com,8652355217,9821313602,Sudha,,,
Padma ,,Arumuganainar,,Executive,operations,Mumbai,Female,single,AB+ve,,390,2/11/1996,22/08/2017,,,,15000,Active,Dhanlaxmi Bank,1.69E+13,DLXB0000169,7.46E+11,padma@econshipping.com,9167222030,9930957144,Nainar,,,
Amit ,Manohar ,Malviya,,Project Manager,Information Technology,Mumbai,Male,married,B+ve,,391,14/10/1978,3/10/2017,,,`100029852404,150000,Active,ICICI Bank,15101036019,ICIC0000151,9.42E+11,amit.malviya@econshipping.com,9920531438,9920531432,Varsha,,,
Shubham ,Arun Dhurve,Dhurve,,Executive,operations,Mumbai,Male,single,O+ve,,392,23/05/1994,5/10/2017,,,,15000,Active,Bank of India,1.17E+13,BKID0000117,6.25E+11,shubham@econshipping.com,8976262333,9967010980,Vidhya,,,
Deepali ,Shyam Ratan ,Chandanshive,,Executive,operations,Mumbai,Female,single,,,394,23/10/1995,11/10/2017,,,,15000,Active,HDFC Bank,5.01E+13,HDFC0000411,8.75E+11,deepali@econshipping.com,9967549234,9004939486,shyam,,,
Aishwarya  ,Rama,Shettigar,,Executive,CST,Mumbai,Female,single,B+ve,Kavita Jadhav,395,18/05/1996,12/10/2017,,,,15000,Active,Indian Bank,6413527208,IDIB000N124,4.15E+11,aishwarya@econshipping.com,8390861474,8983320467,Rama,,B.com,0
Komal ,Ramdas,Dongare,,Executive,Accounts,Mumbai,Female,single,,,400,22/04/1996,16/11/2017,,,,15000,Active,Bank of Baroda,7.33E+12,BARB0DOMBIV,5.49E+11,komal@econshipping.com,9867871844,9324225422,Ramdas,,,
Amol ,Kanhaiya,Patil,,Executive,operations,Mumbai,Male,single,AB-ve,,401,21/05/1995,20/11/2017,,,,15000,Active,State Bank of India,33954826551,SBIN0014729,5.69E+11,amol@econshipping.com,8208196801,8983455298,Sunanda,,,
Ganesh  ,Jaikumar,Pillai,,Executive,operations,Mumbai,Male,single,B+ve,,402,11/3/1994,20/11/2017,,,,15000,Active,Corporation bank,5.20E+14,CORP0000886,7.50E+11,ganesh.pillai@econshipping.com,9029200597,8108800699,Jaikumar,,,
Jinal ,Vipul,Taunk,,Executive,sales,Mundra,Female,single,O+ve,,403,20/11/2017,20/11/2017,,,`101164793842,15000,Active,Axis Bank Ltd.,9.17E+14,UTIB0000269,6.62E+11,jinal@econshipping.com,8793351583,9890861458,Vipul,"Block-F1, NDDB Residential Complex, Opp. IFFCO Colony, Beside IOC Colony, Ward 10A, Gandhidham-370203.Landmark - near Sterling Hospital",B.A,
Harsh ,Pradeep,Bhatia,,Manager,Legal,Mumbai,Male,single,B+ve,,404,14/03/1992,22/11/2017,,,`100773761764,46000,Active,HDFC Bank,5.01E+13,HDFC0000239,3.53E+11,harsh@econshipping.com,9699068782,9820296387,Pradeep,,,
Suresh ,Ganesan,Iyer,,General Manager,Operations,Mumbai,Male,married,A+ve,,406,20/10/1983,2/1/2018,,,`100373899876,208000,Active,HDFC Bank,1.75E+12,HDFC0000175,4.49E+11,suresh@econshipping.com,9664074740,9920768778,Saranya,,,
Nishanth ,Ramachandran,Pillai,,Executive,Operations,Mumbai,Male,single,O+ve,,407,8/10/1994,4/12/2017,,,,15000,Active,Punjab National bank,5.30E+14,PUNB0451000,5.46E+11,nishanth@econshipping.com,9930620708,9619648580,Ramachandran,,,
Mayur,Dilip,Jadhav,,Executive,Operations,Mumbai,Male,single,AB+ve,,408,22/09/1995,4/12/2017,,,,15000,Active,State Bank of India,20292903622,SBIN0011159,5.39E+11,mayur.jadhav@econshipping.com,9920237494,9867212654,Dilip Jadhav,,B.E.,
Yash ,Prasad,Mujumdar,,Executive,Operations,Mumbai,Male,single,A+ve,,409,6/8/1995,4/12/2017,,,,15000,Active,State Bank of India,31502240272,SBIN0000489,4.09E+11,yash@econshipping.com,9619170274,7710069054,Prasad Mujumdar,,B.E,
Jagruti ,Ulhas,Anardi,,Executive,HR,Mumbai,Female,single,O+ve,Rakesh Nair,410,20/10/1996,5/12/2017,,,,15000,Active,Punjab national bank,3.36E+15,PUNBO335800,7.17E+11,jagruti@econshipping.com,9665515296,9890337196,Ulhas Anardi,,B.M.S,0
Abhinav ,Rajendar,Srivastav,,Executive,Operations,Mumbai,Male,single,B+ve,,412,3/1/1995,20/12/2017,,,,15000,Active,State Bank Of India,62423799567,SBIN0020888,7.94E+11,abhinav@econshipping.com,9619841430,9819749487,Rajendar Srivastav,,,
Zakir,,,,Admin,Driver,Mumbai,Male,,AB+ve,,413,17/07/1988,1/6/2017,,,,17000,Active,,,,,,8652646437,8779193375,Baby,,,
Udeshya,Arvind  Singh,Kumar,, Executive,Sales,Delhi,male,single,B+ve,,414,12/2/1995,2/1/2018,,,,15000,Active,State Bank Of India,36618716347,SBIN0009209,3.29E+11,udeshya@econshipping.com,7351766705,7351766705,Reena Singh,,,
Suvam ,Tapas Kumar ,Biswas,, Executive,Sales,Kolkata,male,single,A+ve,,416,13/10/1992,2/1/2018,,,,20000,Active,Allahabad bank,50121284607,ALLA0210498,7.58E+11,suvam@econshipping.com,9038412270,9830296376,Tapas Kumar Biswas,"2/3,Morepukur 1st lane,Rishra,Hoogly-712250",B.Tech,1
