"First Name","Middle Name","Last Name","Shift","Designation","Department","Unit","Gender","Martial Status","Blood Group","Reporting Head","Emp Code","Date of Birth","Date of Joining","Date of Confirmation","Date of Left","Previous Company UAN Number","Gross Salary","Status","Bank Name","Account Number","IFSC Code","Aadhar Card No","Email Id","Personal Number","Emergency Number","Emergency Contact Person","Address","Education","Year of Experience"
"Parth","Sarathi","Rath","S1 - 08.00 : 17.30","CEO & MD","Executive","Mumbai","Male","Married","","","1","03/11/1963","03/10/2009","","","","","Active","","","","","","0","","","","",""
"Kavita ","Sunil","Jadhav","S1 - 08.00 : 17.30","GM","Sales","Mumbai","Female","Married","O+ve","Capt Rath","5","13/02/1983","03/10/2009","03/02/2010","","","155000","Active","Kotak Mahindra","","","","kavita@econshipping.com","2147483647","7506262831","Sunil jadhav","B502, Shree Durga CHS, 5th Floor, Sector 7, Plot No 27, Airoli, Navi Mumbai","Bcom","6"
"Ashwin","Pawan","Uppal","S1 - 08.00 : 17.30","DGM","Commercial","Mumbai","Male","Married","","","6","19/03/1988","24/03/2010","01/07/2010","","","","Active","","","","","","0","","","","",""
"Subramanian","","Kannan","S2 - 09.00 : 17.30","Manager","Sales","Chennai","Male","Married","","","21","06/07/1983","07/10/2009","","","","","Active","","","","","","0","","","","",""
"Nihar ","","Pradhan","S1 - 08.00 : 17.30","Sr Manager","Sales","Malaysia","Male","Married","","","47","19/02/1986","09/08/2010","","","","","Active","","","","","","0","","","","",""
"Krishna ","","Das","S1 - 08.00 : 17.30","Sr Manager","Sales","Dubai","Male","","","","50","","","","","","","Active","","","","","","0","","","","",""
"Jyotshna","","Satpathy","S1 - 08.00 : 17.30","Asst Manager","Sales","Malaysia","Female","Married","","","55","","","","","","","Active","","","","","","0","","","","",""
"Joseph","","Campbel","S1 - 08.00 : 17.30","Asst Manager","Operations","Mumbai","Male","","","","60","","","","","","","Active","","","","","","0","","","","",""
"Amit ","","Ghosh","S2 - 09.00 : 17.30","","Operations","Kolkata","Male","","","","68","","","","","","","Active","","","","","","0","","","","",""
"Chandrakant ","","Kadu","S1 - 08.00 : 17.30","","Operations","Mumbai","","","","","80","","","","","","","Active","","","","","","0","","","","",""
"Gurudev ","","Singh","S1 - 08.00 : 17.30","","Operations","Mumbai","","","","","104","","","","","","","Active","","","","","","0","","","","",""
"Maroof","","Solkar","S1 - 08.00 : 17.30","","Operations","Mumbai","","","","","110","","","","","","","Active","","","","","","0","","","","",""
"Appu","Kumar","singh","S1 - 08.00 : 17.30","","Operations","Mumbai","","","","","114","","","","","","","Active","","","","","","0","","","","",""
"Kartar","","Chand","S2 - 09.00 : 17.30","","Operations","Ludhiana","","","","","122","","","","","","","Active","","","","","","0","","","","",""
"Mayur","","Patil","S1 - 08.00 : 17.30","","Operations","Mumbai","","","","","124","","","","","","","Active","","","","","","0","","","","",""
"Ashutosh ","","Mishra","S1 - 08.00 : 17.30","","Operations","Mumbai","","","","","135","","","","","","","Active","","","","","","0","","","","",""
"Bhagwat","Singh","Yadav","S1 - 08.00 : 17.30","","Operations","Mumbai","","","","","145","","","","","","","Active","","","","","","0","","","","",""
"Poonam ","","Khare","S1 - 08.00 : 17.30","","Operations","Mumbai","","","","","147","","","","","","","Active","","","","","","0","","","","",""
"Jayesh ","Nandu","Jhadav","S1 - 08.00 : 17.30","","Operations","Mumbai","","","","","167","","","","","","","Active","","","","","","0","","","","",""
"Hemali ","Gangadhar","Shettigar","S1 - 08.00 : 17.30","","Operations","Mumbai","","","","","171","","","","","","","Active","","","","","","0","","","","",""
"Anuja ","Sharad","Jathar","S1 - 08.00 : 17.30","","Operations","Mumbai","","","","","182","","","","","","","Active","","","","","","0","","","","",""
"Banoo ","Ganesh","Dunuka","S1 - 08.00 : 17.30","","Operations","Mumbai","","","","","190","","","","","","","Active","","","","","","0","","","","",""
"Rakesh ","Mohankumar","Nair","S1 - 08.00 : 17.30","","Operations","Mumbai","","","","","193","","","","","","","Active","","","","","","0","","","","",""
"Faisal ","","Qasmi","S1 - 08.00 : 17.30","","Operations","Mumbai","","","","","200","","","","","","","Active","","","","","","0","","","","",""
"Dipankar ","","Sengupta","S1 - 08.00 : 17.30","","Operations","Mumbai","","","","","202","","","","","","","Active","","","","","","0","","","","",""
"Ramchandran ","","Khutan","S1 - 08.00 : 17.30","","Operations","Mumbai","","","","","204","","","","","","","Active","","","","","","0","","","","",""
"Basil ","","Cyriac","S1 - 08.00 : 17.30","","Operations","Mumbai","","","","","206","","","","","","","Active","","","","","","0","","","","",""
"Supriya ","","Shashidharan","S1 - 08.00 : 17.30","","Operations","Mumbai","","","","","214","","","","","","","Active","","","","","","0","","","","",""
"Amit ","","Zepale","S1 - 08.00 : 17.30","","Operations","Mumbai","","","","","215","","","","","","","Active","","","","","","0","","","","",""
"Chittaranjan ","","Jena","S1 - 08.00 : 17.30","","Operations","Dubai","","","","","217","","","","","","","Active","","","","","","0","","","","",""
"Shivangi ","","Bhatnagar","S1 - 08.00 : 17.30","","Operations","Mumbai","","","","","225","","","","","","","Active","","","","","","0","","","","",""
"Rakhi ","Hanmanta","Kaki","S1 - 08.00 : 17.30","","Operations","Mumbai","","","","","238","","","","","","","Active","","","","","","0","","","","",""
"Asmita ","Ghanshyam","Kadam","S1 - 08.00 : 17.30","","Operations","Mumbai","","","","","241","","","","","","","Active","","","","","","0","","","","",""
"Sumita ","M","Redkar","S1 - 08.00 : 17.30","","Operations","Mumbai","","","","","244","","","","","","","Active","","","","","","0","","","","",""
"Manisha ","Ramawatar","Saini","S1 - 08.00 : 17.30","","Operations","Mumbai","","","","","245","","","","","","","Active","","","","","","0","","","","",""
"Ranjana ","Hawaldar","Prajapati","S1 - 08.00 : 17.30","","Operations","Mumbai","","","","","247","","","","","","","Active","","","","","","0","","","","",""
"Rajesh","Prashant","Kumtekar","S1 - 08.00 : 17.30","","Operations","Mumbai","","","","","251","","","","","","","Active","","","","","","0","","","","",""
"Pritam ","","Das","S1 - 08.00 : 17.30","","Operations","Mumbai","","","","","253","","","","","","","Active","","","","","","0","","","","",""
"Priya ","","Choudhary","S1 - 08.00 : 17.30","","Operations","Mumbai","","","","","260","","","","","","","Active","","","","","","0","","","","",""
"Priya ","","Talekar","S1 - 08.00 : 17.30","","Operations","Mumbai","","","","","261","","","","","","","Active","","","","","","0","","","","",""
"John ","Nicholas","Newton S","S2 - 09.00 : 17.30","","Operations","Tuticorin","","","","","264","","","","","","","Active","","","","","","0","","","","",""
"Sheji ","R","Nair","S1 - 08.00 : 17.30","","Operations","Mumbai","","","","","270","","","","","","","Active","","","","","","0","","","","",""
"Shahbaaz ","Badrealam","Ansari","S1 - 08.00 : 17.30","","Operations","Mumbai","","","","","271","","","","","","","Active","","","","","","0","","","","",""
"Dolly ","","Kori","S1 - 08.00 : 17.30","","Operations","Mumbai","","","","","279","","","","","","","Active","","","","","","0","","","","",""
"Seema ","","Gujjar","S1 - 08.00 : 17.30","","Operations","Mumbai","","","","","281","","","","","","","Active","","","","","","0","","","","",""
"Pooja ","S","Kocharekar","S1 - 08.00 : 17.30","","Operations","Mumbai","","","","","288","","","","","","","Active","","","","","","0","","","","",""
"Siddhesh ","","Chavan","S1 - 08.00 : 17.30","","Operations","Mumbai","","","","","290","","","","","","","Active","","","","","","0","","","","",""
"Deepak ","","Yadav","S1 - 08.00 : 17.30","","Operations","Mumbai","","","","","291","","","","","","","Active","","","","","","0","","","","",""
"Sushant ","","Kumar","S2 - 09.00 : 17.30","","Operations","Delhi","","","","","292","","","","","","","Active","","","","","","0","","","","",""
"Rahul","","Ravindranath","S2 - 09.00 : 17.30","","Operations","Cochin","","","","","304","","","","","","","Active","","","","","","0","","","","",""
"Mansur ","","Ansari","S1 - 08.00 : 17.30","","Operations","Mumbai","","","","","306","","","","","","","Active","","","","","","0","","","","",""
"Umesh ","Haridas","Madatholy","S1 - 08.00 : 17.30","","Operations","Mumbai","","","","","312","","","","","","","Active","","","","","","0","","","","",""
"Abhishek ","","Poojari","S1 - 08.00 : 17.30","","Operations","Mumbai","","","","","314","","","","","","","Active","","","","","","0","","","","",""
"Nadia","","Bhanja","S1 - 08.00 : 17.30","","Operations","Mumbai","","","","","317","","","","","","","Active","","","","","","0","","","","",""
"Shrikant ","Prakash","Satarkar","S1 - 08.00 : 17.30","","Operations","Mumbai","","","","","323","","","","","","","Active","","","","","","0","","","","",""
"Fiona ","","Fernando","S1 - 08.00 : 17.30","","Operations","Mumbai","","","","","325","","","","","","","Active","","","","","","0","","","","",""
"Raja ","","Nadar","S1 - 08.00 : 17.30","","Operations","Mumbai","","","","","327","","","","","","","Active","","","","","","0","","","","",""
"Bhavin ","Harshadbhai","Patel","S1 - 08.00 : 17.30","","Operations","Mumbai","","","","","328","","","","","","","Active","","","","","","0","","","","",""
"Krizelle ","","Rapose","S1 - 08.00 : 17.30","","Operations","Mumbai","","","","","329","","","","","","","Active","","","","","","0","","","","",""
"Lee","Zhi","Yang","S3 - 08.30 : 17.30","","Operations","Singapore","","","","","330","","","","","","","Active","","","","","","0","","","","",""
"Andrew ","","Goh","S3 - 08.30 : 17.30","","Operations","Singapore","","","","","331","","","","","","","Active","","","","","","0","","","","",""
"Vimalan Shawn","","Shawn","S3 - 08.30 : 17.30","","Operations","Singapore","","","","","332","","","","","","","Active","","","","","","0","","","","",""
"Mugelan ","","A/l Eleng Kovan","S1 - 08.00 : 17.30","","Operations","Malaysia","","","","","336","","","","","","","Active","","","","","","0","","","","",""
"Aaftab ","M.","Matte","S1 - 08.00 : 17.30","","Operations","Mumbai","","","","","341","","","","","","","Active","","","","","","0","","","","",""
"Sankesh Poojari","","Poojari","S1 - 08.00 : 17.30","","Operations","Mumbai","","","","","342","","","","","","","Active","","","","","","0","","","","",""
"Revathi","","Subramanian","S1 - 08.00 : 17.30","","Operations","Mumbai","","","","","343","","","","","","","Active","","","","","","0","","","","",""
"Kishor","","Chaudhary","S1 - 08.00 : 17.30","","Operations","Mumbai","","","","","344","","","","","","","Active","","","","","","0","","","","",""
"Vinod","","Singh","S2 - 09.00 : 17.30","","Operations","Delhi","","","","","347","","","","","","","Active","","","","","","0","","","","",""
"Stervino","","F","S2 - 09.00 : 17.30","","Operations","Tuticorin","","","","","348","","","","","","","Active","","","","","","0","","","","",""
"Rahul Agarwal","","Agarwal","S2 - 09.00 : 17.30","","Operations","Gandhidham","","","","","349","","","","","","","Active","","","","","","0","","","","",""
"Viraj ","A.","Parab","S1 - 08.00 : 17.30","","Operations","Mumbai","","","","","355","","","","","","","Active","","","","","","0","","","","",""
"Surya","M.S.","Senthil","S1 - 08.00 : 17.30","","Operations","Mumbai","","","","","358","","","","","","","Active","","","","","","0","","","","",""
"Snehal ","Ashok ","Parab","S1 - 08.00 : 17.30","","Operations","Mumbai","","","","","363","","","","","","","Active","","","","","","0","","","","",""
"Rajat","","Kumar","S1 - 08.00 : 17.30","","Operations","Mumbai","","","","","368","","","","","","","Active","","","","","","0","","","","",""
"Zaheda","","Shaikh","S1 - 08.00 : 17.30","","Operations","Mumbai","","","","","371","","","","","","","Active","","","","","","0","","","","",""
"Rahul","","Vijan","S1 - 08.00 : 17.30","","Operations","Mumbai","","","","","372","","","","","","","Active","","","","","","0","","","","",""
"Shiva ","Yelappa","Chalwadi","S1 - 08.00 : 17.30","","Operations","Mumbai","","","","","374","","","","","","","Active","","","","","","0","","","","",""
"Rupesh","","Jha","S1 - 08.00 : 17.30","","Operations","Mumbai","","","","","375","","","","","","","Active","","","","","","0","","","","",""
"Rohit","","Raut","S1 - 08.00 : 17.30","","Operations","Mumbai","","","","","376","","","","","","","Active","","","","","","0","","","","",""
"Ramaa","","Sabat","S1 - 08.00 : 17.30","Executive","Trade","Mumbai","Female","Single","","","377","","","","","","","Active","","","","","","0","","","","",""
"Sagar  ","Navin","Rao","S1 - 08.00 : 17.30","Executive","Trade","Mumbai","Male","Single","B+ve","Ashwin Uppal","378","15/10/1994","06/06/2017","11/12/2017","","","15000","Active","Canara Bank","`1770000000000","CNRB0001765","`566000000000","sagar@econshipping.com","2147483647","8691967779","Navin Rao","114/3763,Himanshu CHS, Near Police
 Station,Nehru Nagar,Kurla(E),Mumbai
-400024","",""
"Nidhi ","Govindsingh ","Kharayat","S1 - 08.00 : 17.30","Executive","Accounts","Mumbai","Female","Single","B+ve","","380","07/03/1995","14/06/2017","11/12/2017","","","15000","Active","Union Bank","`630000000000000","UBIN0562971","","nidhi@econshipping.com","2147483647","9323192283","Govind Singh","","",""
"Sreelakshmi ","Santoshkumar","Nair","S1 - 08.00 : 17.30","Executive","Quality","Mumbai","Female","Single","b+ve","","383","05/06/1996","15/06/2017","11/12/2017","","","15000","Active","Canara Bank","`249000000000","CNRB0000249","`360000000000","sreelakshmi@econshipping.com","2147483647","9821443003","Shaly","D 101, Yog-sankul, Mahatma Phule Road, Maharashtra Nagar, Dombivli(west). Thane.","B.com","0"
"Vimalan","A/l","Raman","S1 - 08.00 : 17.30","","Operations","Malaysia","","","","","384","","","","","","","Active","","","","","","0","","","","",""
"Kirti  ","Dattaram","Bane","S1 - 08.00 : 17.30","Executive","Accounts","Mumbai","Female","Single","AB+ve","","385","17/11/1989","03/07/2017","04/01/2018","","","15000","Active","Axis Bank","`915000000000000","UTIB0000018","`340000000000","kriti@econshipping.com","2147483647","8097952426","Ketan","","",""
"Karishma","Joshi","Machingal","S1 - 08.00 : 17.30","Executive","Operations","Mumbai","Female","Single","AB+ve","","387","28/08/1996","01/08/2017","","","","15000","Active","State Bank of India","`67383499221","SBIN0070800","`694000000000","karishma@econshipping.com","2147483647","9967683060","Joshi","","",""
"Mariammal ","","Ayyadurai","S1 - 08.00 : 17.30","Executive","Operations","Mumbai","Female","Single","O+ve","","388","12/06/1996","01/08/2017","","","","15000","Active","Indian Overseas Bank","`14100000000000","IOBA0000141","`455000000000","mari@econshipping.com","2147483647","9821313602","Sudha","","",""
"Padma ","","Arumuganainar","S1 - 08.00 : 17.30","Executive","Operations","Mumbai","Female","Single","AB+ve","","390","02/11/1996","22/08/2017","","","","15000","Active","Dhanlaxmi Bank","`16900000000000","DLXB0000169","`746000000000","padma@econshipping.com","2147483647","9930957144","Nainar","","",""
"Amit ","Manohar ","Malviya","S1 - 08.00 : 17.30","Project Manager","Information Technology","Mumbai","Male","Married","B+ve","","391","14/10/1978","03/10/2017","","","`100029852404","150000","Active","ICICI Bank","`15101036019","ICIC0000151","`942000000000","amit.malviya@econshipping.com","2147483647","9920531432","Varsha","","",""
"Shubham ","Arun Dhurve","Dhurve","S1 - 08.00 : 17.30","Executive","Operations","Mumbai","Male","Single","O+ve","","392","23/05/1994","05/10/2017","","","","15000","Active","Bank of India","`11700000000000","BKID0000117","`625000000000","shubham@econshipping.com","2147483647","9967010980","Vidhya","","",""
"Deepali ","Shyam Ratan ","Chandanshive","S1 - 08.00 : 17.30","Executive","Operations","Mumbai","Female","Single","","","394","23/10/1995","11/10/2017","","","","15000","Active","HDFC Bank","`50100000000000","HDFC0000411","`875000000000","deepali@econshipping.com","2147483647","9004939486","shyam","","",""
"Aishwarya  ","Rama","Shettigar","S1 - 08.00 : 17.30","Executive","CST","Mumbai","Female","Single","B+ve","Kavita Jadhav","395","18/05/1996","12/10/2017","","","","15000","Active","Indian Bank","`6413527208","IDIB000N124","`415000000000","aishwarya@econshipping.com","2147483647","8983320467","Rama","","B.com","0"
"Komal ","Ramdas","Dongare","S1 - 08.00 : 17.30","Executive","Accounts","Mumbai","Female","Single","","","400","22/04/1996","16/11/2017","","","","15000","Active","Bank of Baroda","`7330000000000","BARB0DOMBIV","`549000000000","komal@econshipping.com","2147483647","9324225422","Ramdas","","",""
"Amol ","Kanhaiya","Patil","S1 - 08.00 : 17.30","Executive","Operations","Mumbai","Male","Single","AB-ve","","401","21/05/1995","20/11/2017","","","","15000","Active","State Bank of India","`33954826551","SBIN0014729","`569000000000","amol@econshipping.com","2147483647","8983455298","Sunanda","","",""
"Ganesh  ","Jaikumar","Pillai","S1 - 08.00 : 17.30","Executive","Operations","Mumbai","Male","Single","B+ve","","402","11/03/1994","20/11/2017","","","","15000","Active","Corporation bank","`520000000000000","CORP0000886","`750000000000","ganesh.pillai@econshipping.com","2147483647","8108800699","Jaikumar","","",""
"Jinal ","Vipul","Taunk","S2 - 09.00 : 17.30","Executive","Sales","Mundra","Female","Single","O+ve","","403","20/11/2017","20/11/2017","","","`101164793842","15000","Active","Axis Bank Ltd.","`917000000000000","UTIB0000269","`662000000000","jinal@econshipping.com","2147483647","9890861458","Vipul","Block-F1, NDDB Residential Complex, Opp. IFFCO Colony, Beside IOC Colony, Ward 10A, Gandhidham-370203.Landmark - near Sterling Hospital","B.A",""
"Harsh ","Pradeep","Bhatia","S1 - 08.00 : 17.30","Manager","Legal","Mumbai","Male","Single","B+ve","","404","14/03/1992","22/11/2017","","","`100773761764","46000","Active","HDFC Bank","`50100000000000","HDFC0000239","`353000000000","harsh@econshipping.com","2147483647","9820296387","Pradeep","","",""
"Suresh ","Ganesan","Iyer","S1 - 08.00 : 17.30","General Manager","Operations","Mumbai","Male","Married","A+ve","","406","20/10/1983","02/01/2018","","","`100373899876","208000","Active","HDFC Bank","`1750000000000","HDFC0000175","`449000000000","suresh@econshipping.com","2147483647","9920768778","Saranya","","",""
"Nishanth ","Ramachandran","Pillai","S1 - 08.00 : 17.30","Executive","Operations","Mumbai","Male","Single","O+ve","","407","08/10/1994","04/12/2017","","","","15000","Active","Punjab National bank","`530000000000000","PUNB0451000","`546000000000","nishanth@econshipping.com","2147483647","9619648580","Ramachandran","","",""
"Mayur","Dilip","Jadhav","S1 - 08.00 : 17.30","Executive","Operations","Mumbai","Male","Single","AB+ve","","408","22/09/1995","04/12/2017","","","","15000","Active","State Bank of India","`20292903622","SBIN0011159","`539000000000","mayur.jadhav@econshipping.com","2147483647","9867212654","Dilip Jadhav","","B.E.",""
"Yash ","Prasad","Mujumdar","S1 - 08.00 : 17.30","Executive","Operations","Mumbai","Male","Single","A+ve","","409","06/08/1995","04/12/2017","","","","15000","Active","State Bank of India","`31502240272","SBIN0000489","`409000000000","yash@econshipping.com","2147483647","7710069054","Prasad Mujumdar","","B.E",""
"Jagruti ","Ulhas","Anardi","S1 - 08.00 : 17.30","Executive","HR","Mumbai","Female","Single","O+ve","Rakesh Nair","410","20/10/1996","05/12/2017","","","","15000","Active","Punjab national bank","`3360000000000000","PUNBO335800","`717000000000","jagruti@econshipping.com","2147483647","9890337196","Ulhas Anardi","","B.M.S","0"
"Abhinav ","Rajendar","Srivastav","S1 - 08.00 : 17.30","Executive","Operations","Mumbai","Male","Single","B+ve","","412","03/01/1995","20/12/2017","","","","15000","Active","State Bank Of India","`62423799567","SBIN0020888","`794000000000","abhinav@econshipping.com","2147483647","9819749487","Rajendar Srivastav","","",""
"Zakir","","","S1 - 08.00 : 17.30","Admin","Driver","Mumbai","Male","","AB+ve","","413","17/07/1988","01/06/2017","","","","17000","Active","","","","","","2147483647","8779193375","Baby","","",""
"Udeshya","Arvind  Singh","Kumar","S2 - 09.00 : 17.30"," Executive","Sales","Delhi","Male","Single","B+ve","","414","12/02/1995","02/01/2018","","","","15000","Active","State Bank Of India","`36618716347","SBIN0009209","`329000000000","udeshya@econshipping.com","2147483647","7351766705","Reena Singh","","",""
"Suvam ","Tapas Kumar ","Biswas","S2 - 09.00 : 17.30"," Executive","Sales","Kolkata","Male","Single","A+ve","","416","13/10/1992","02/01/2018","","","","20000","Active","Allahabad bank","`50121284607","ALLA0210498","`758000000000","suvam@econshipping.com","2147483647","9830296376","Tapas Kumar Biswas","2/3,Morepukur 1st lane,Rishra,Hoogly-712250","B.Tech","1"
